<svg width="271" height="100" viewBox="0 0 271 100" fill="none" xmlns="http://www.w3.org/2000/svg">
    <path d="M129.877 71.0778H117.37L111.463 44.4414H121.597L124.202 64.245H124.376L127.329 44.4414H138.042L141.169 64.1871H141.4L143.832 44.4414H154.024L148.117 71.0778H135.552L132.772 54.9802H132.599L129.877 71.0778Z" fill="#24292E"/>
    <path d="M171.032 71.0778L170.105 67.4298C168.33 70.325 165.859 71.7727 162.693 71.7727C160.107 71.7727 157.984 71.0585 156.324 69.6302C154.703 68.1632 153.892 66.1173 153.892 63.4922C153.892 61.8709 154.355 60.4619 155.282 59.2651C156.247 58.0298 157.559 57.1613 159.219 56.6594C161.381 56.0418 164.72 55.6943 169.237 55.6171C169.237 53.0693 169.121 51.7182 168.889 51.5638C168.696 51.4094 168.079 51.3321 167.036 51.3321C166.38 51.3321 165.473 51.3707 164.315 51.448C162.462 51.5252 159.953 51.7375 156.787 52.0849C156.478 50.0003 156.247 47.7613 156.092 45.3679C158.138 44.9433 160.281 44.5958 162.52 44.3256C164.759 44.0168 166.766 43.8624 168.542 43.8624C171.63 43.8624 173.946 44.3835 175.49 45.4258C177.035 46.4295 178.038 47.7613 178.502 49.4213C178.965 51.0812 179.177 53.1851 179.139 55.7329L179.081 64.245L179.254 71.0778H171.032ZM166.052 65.2873C167.056 65.2873 168.117 65.0943 169.237 64.7082V60.4232H168.773C165.917 60.4232 164.334 60.5777 164.025 60.8865C163.832 61.0795 163.678 61.369 163.562 61.7551C163.485 62.1411 163.446 62.5078 163.446 62.8553C163.446 63.7817 163.659 64.4187 164.083 64.7661C164.508 65.1136 165.164 65.2873 166.052 65.2873Z" fill="#24292E"/>
    <path d="M209.377 46.1207C209.725 46.5453 209.976 47.6069 210.13 49.3055C210.323 51.004 210.419 53.5904 210.419 57.0648V71.0778H200.518V57.1806C200.518 57.0261 200.518 56.2734 200.518 54.9223C200.518 53.5325 200.421 52.6833 200.228 52.3744C200.112 52.22 199.823 52.1042 199.36 52.027C198.935 51.9498 198.433 51.9112 197.854 51.9112L196.87 51.9691C195.789 52.0077 194.669 52.2586 193.511 52.7219V71.0778H183.609V36.3347L193.511 35.9294V42.7043C193.511 45.4837 193.415 47.3367 193.222 48.2632L193.28 48.3211C195.905 45.3486 199.051 43.8624 202.718 43.8624C204.108 43.8624 205.401 44.0554 206.598 44.4414C207.833 44.8275 208.76 45.3872 209.377 46.1207Z" fill="#24292E"/>
    <path d="M230.86 71.0778L229.933 67.4298C228.157 70.325 225.687 71.7727 222.521 71.7727C219.935 71.7727 217.812 71.0585 216.152 69.6302C214.53 68.1632 213.72 66.1173 213.72 63.4922C213.72 61.8709 214.183 60.4619 215.109 59.2651C216.074 58.0298 217.387 57.1613 219.047 56.6594C221.209 56.0418 224.548 55.6943 229.064 55.6171C229.064 53.0693 228.949 51.7182 228.717 51.5638C228.524 51.4094 227.906 51.3321 226.864 51.3321C226.208 51.3321 225.301 51.3707 224.143 51.448C222.29 51.5252 219.78 51.7375 216.615 52.0849C216.306 50.0003 216.074 47.7613 215.92 45.3679C217.966 44.9433 220.108 44.5958 222.347 44.3256C224.586 44.0168 226.594 43.8624 228.37 43.8624C231.458 43.8624 233.774 44.3835 235.318 45.4258C236.862 46.4295 237.866 47.7613 238.329 49.4213C238.793 51.0812 239.005 53.1851 238.966 55.7329L238.908 64.245L239.082 71.0778H230.86ZM225.88 65.2873C226.883 65.2873 227.945 65.0943 229.064 64.7082V60.4232H228.601C225.745 60.4232 224.162 60.5777 223.853 60.8865C223.66 61.0795 223.506 61.369 223.39 61.7551C223.313 62.1411 223.274 62.5078 223.274 62.8553C223.274 63.7817 223.486 64.4187 223.911 64.7661C224.336 65.1136 224.992 65.2873 225.88 65.2873Z" fill="#24292E"/>
    <path d="M271 44.4414L264.051 66.7349C262.7 71.0199 261.484 74.1275 260.403 76.0576C259.322 78.0264 258.242 79.3968 257.161 80.1689C256.543 80.5935 255.559 80.9217 254.208 81.1533C252.895 81.3849 251.467 81.5007 249.923 81.5007C247.606 81.5007 245.753 81.2884 244.364 80.8638C244.325 79.9373 244.364 78.7985 244.479 77.4474C244.595 76.1348 244.75 75.0153 244.943 74.0889C246.564 74.1661 248.147 74.2047 249.691 74.2047C250.849 74.2047 251.718 74.1854 252.297 74.1468C252.876 73.0273 253.416 71.8499 253.918 70.6145L249.923 70.3829L241.005 44.4414H251.486L256.118 63.0869L256.176 64.1871H256.35L260.519 44.4414H271Z" fill="#24292E"/>
    <path d="M9.417 37.2022C9.417 16.656 26.073 0 46.6192 0C67.1653 0 83.8213 16.656 83.8213 37.2022V70.2377C83.8213 70.8952 83.2883 71.4281 82.6309 71.4281L77.2733 71.4282V37.2022C77.2733 20.2721 63.5487 6.54759 46.6187 6.54759C29.6886 6.54759 15.9641 20.2721 15.9641 37.2022V71.4282L10.6075 71.4281C9.94999 71.4281 9.417 70.8952 9.417 70.2377V37.2022Z" fill="#28A745"/>
    <path d="M53.8439 78.4627V37.8863C53.8439 33.9032 50.615 30.6742 46.6319 30.6742C42.6487 30.6742 39.4198 33.9032 39.4198 37.8863V78.4627C39.4198 82.4458 42.6487 85.6748 46.6319 85.6748C50.615 85.6748 53.8439 82.4458 53.8439 78.4627Z" fill="#28A745"/>
    <path fill-rule="evenodd" clip-rule="evenodd" d="M26.4547 36.9896C26.4547 25.8466 35.4879 16.8134 46.6308 16.8134C57.7738 16.8134 66.807 25.8466 66.807 36.9896V79.8078C66.807 90.9507 57.7738 99.9839 46.6308 99.9839C35.4879 99.9839 26.4547 90.9508 26.4547 79.8078V36.9896ZM46.6319 26.4531C40.3175 26.4531 35.1987 31.5719 35.1987 37.8863V78.4627C35.1987 84.7771 40.3175 89.8959 46.6319 89.8959C52.9462 89.8959 58.065 84.7771 58.065 78.4627V37.8863C58.065 31.5719 52.9462 26.4531 46.6319 26.4531Z" fill="#28A745"/>
    <path d="M0 47.0776C0 45.8395 1.00368 44.8358 2.24179 44.8358H7.73805V71.6214H2.24179C1.00368 71.6214 0 70.6177 0 69.3796V47.0776Z" fill="#28A745"/>
    <path d="M90.9084 44.8358H85.4121V71.6214H90.9084C92.1465 71.6214 93.1502 70.6177 93.1502 69.3796V47.0776C93.1502 45.8395 92.1465 44.8358 90.9084 44.8358Z" fill="#28A745"/>
</svg>
